Lab 4/Lab4/simulation/qsim/lab4.msim.vcd
$comment
	File created using the following command:
		vcd file lab4.msim.vcd -direction
$end
$date
	Mon Feb 04 15:16:22 2019
$end
$version
	ModelSim Version 10.5b
$end
$timescale
	1ps
$end

$scope module twos_vlg_vec_tst $end
$var reg 1 ! a1 $end
$var reg 1 " a2 $end
$var reg 1 # a3 $end
$var reg 1 $ a4 $end
$var wire 1 % o1 $end
$var wire 1 & o2 $end
$var wire 1 ' o3 $end
$var wire 1 ( o4 $end

$scope module i1 $end
$var wire 1 ) gnd $end
$var wire 1 * vcc $end
$var wire 1 + unknown $end
$var tri1 1 , devclrn $end
$var tri1 1 - devpor $end
$var tri1 1 . devoe $end
$var wire 1 / ~QUARTUS_CREATED_GND~I_combout $end
$var wire 1 0 a1~input_o $end
$var wire 1 1 a2~input_o $end
$var wire 1 2 ha2|sum~combout $end
$var wire 1 3 a3~input_o $end
$var wire 1 4 ha3|sum~combout $end
$var wire 1 5 a4~input_o $end
$var wire 1 6 ha4|sum~combout $end
$upscope $end
$upscope $end
$enddefinitions $end
#0
$dumpvars
0!
0"
0#
0$
0%
0&
0'
0(
0)
1*
x+
1,
1-
1.
0/
00
01
02
03
04
05
06
$end
#500000
1$
15
16
1(
#1000000
1#
0$
13
05
14
1'
#1500000
1$
15
06
0(
#2000000
1"
0#
0$
11
03
05
16
12
1&
1(
#2500000
1$
15
06
0(
#3000000
1#
0$
13
05
16
04
0'
1(
#3500000
1$
15
06
0(
#4000000
1!
0"
0#
0$
01
03
05
10
1%
16
14
1'
1(
#4500000
1$
15
06
0(
#5000000
1#
0$
13
05
16
04
0'
1(
#5500000
1$
15
06
0(
#6000000
1"
0#
0$
11
03
05
16
14
02
0&
1'
1(
#6500000
1$
15
06
0(
#7000000
1#
0$
13
05
16
04
0'
1(
#7500000
1$
15
06
0(
#8000000
0!
0"
0#
0$
01
03
05
00
0%
#8500000
1$
15
16
1(
#9000000
1#
0$
13
05
14
1'
#9500000
1$
15
06
0(
