Lab 3/Quatrus Prime Project/lab3/simulation/qsim/lab3.msim.vcd
$comment
	File created using the following command:
		vcd file lab3.msim.vcd -direction
$end
$date
	Mon Jan 28 15:20:15 2019
$end
$version
	ModelSim Version 10.5b
$end
$timescale
	1ps
$end

$scope module lab3_vlg_vec_tst $end
$var reg 1 ! a $end
$var reg 1 " b $end
$var reg 1 # c $end
$var reg 1 $ d $end
$var wire 1 % o $end

$scope module i1 $end
$var wire 1 & gnd $end
$var wire 1 ' vcc $end
$var wire 1 ( unknown $end
$var tri1 1 ) devclrn $end
$var tri1 1 * devpor $end
$var tri1 1 + devoe $end
$var wire 1 , ~QUARTUS_CREATED_GND~I_combout $end
$var wire 1 - b~input_o $end
$var wire 1 . c~input_o $end
$var wire 1 / d~input_o $end
$var wire 1 0 a~input_o $end
$var wire 1 1 WideOr0~combout $end
$upscope $end
$upscope $end
$enddefinitions $end
#0
$dumpvars
0!
0"
0#
0$
0%
0&
1'
x(
1)
1*
1+
0,
0-
0.
0/
00
01
$end
#500
1!
10
#1000
1"
0!
1-
00
11
1%
#1500
1!
10
01
0%
#2000
1#
0"
0!
1.
0-
00
#2500
1!
10
#3000
1"
0!
1-
00
11
1%
#3500
1!
10
01
0%
#4000
1$
0#
0"
0!
1/
0.
0-
00
11
1%
#4500
1!
10
#5000
1"
0!
1-
00
#5500
1!
10
#6000
1#
0"
0!
1.
0-
00
01
0%
#6500
1!
10
11
1%
#7000
1"
0!
1-
00
#7500
1!
10
01
0%
#8000
0$
0#
0"
0!
0/
0.
0-
00
#8500
1!
10
#9000
1"
0!
1-
00
11
1%
#9500
1!
10
01
0%
