Lab 5/lab5/simulation/qsim/lab5.msim.vcd
$comment
	File created using the following command:
		vcd file lab5.msim.vcd -direction
$end
$date
	Mon Feb 11 14:37:38 2019
$end
$version
	ModelSim Version 10.5b
$end
$timescale
	1ps
$end

$scope module segment7_vlg_vec_tst $end
$var reg 4 ! bcd [3:0] $end
$var wire 1 " seg [6] $end
$var wire 1 # seg [5] $end
$var wire 1 $ seg [4] $end
$var wire 1 % seg [3] $end
$var wire 1 & seg [2] $end
$var wire 1 ' seg [1] $end
$var wire 1 ( seg [0] $end

$scope module i1 $end
$var wire 1 ) gnd $end
$var wire 1 * vcc $end
$var wire 1 + unknown $end
$var tri1 1 , devclrn $end
$var tri1 1 - devpor $end
$var tri1 1 . devoe $end
$var wire 1 / ~QUARTUS_CREATED_GND~I_combout $end
$var wire 1 0 bcd[1]~input_o $end
$var wire 1 1 bcd[3]~input_o $end
$var wire 1 2 bcd[0]~input_o $end
$var wire 1 3 bcd[2]~input_o $end
$var wire 1 4 WideOr6~0_combout $end
$var wire 1 5 WideOr5~0_combout $end
$var wire 1 6 WideOr4~0_combout $end
$var wire 1 7 WideOr3~0_combout $end
$var wire 1 8 WideOr2~0_combout $end
$var wire 1 9 WideOr1~0_combout $end
$var wire 1 : WideOr0~0_combout $end
$upscope $end
$upscope $end
$enddefinitions $end
#0
$dumpvars
b0 !
1(
0'
0&
0%
0$
0#
0"
0)
1*
x+
1,
1-
1.
0/
00
01
02
03
04
05
06
07
08
09
0:
$end
#500000
b1 !
12
1:
17
16
15
1'
1&
1%
1"
#1000000
b11 !
b10 !
02
10
14
0:
18
07
06
0&
0%
1$
0"
0(
#1500000
b11 !
12
08
16
1&
0$
#2000000
b111 !
b101 !
b100 !
02
00
13
1:
17
05
0'
1%
1"
#2500000
b101 !
12
0:
19
07
0%
1#
0"
#3000000
b111 !
b110 !
02
10
06
0&
#3500000
b111 !
12
04
09
17
16
15
1'
1&
1%
0#
1(
#4000000
b1111 !
b1011 !
b1001 !
b1000 !
02
00
03
11
14
07
06
05
0'
0&
0%
0(
#4500000
b1001 !
12
16
1&
#5000000
b1011 !
b1010 !
02
10
04
1:
19
18
17
15
1'
1%
1$
1#
1"
1(
#5500000
b1011 !
12
#6000000
b1111 !
b1101 !
b1100 !
02
00
13
#6500000
b1101 !
12
#7000000
b1111 !
b1110 !
02
10
#7500000
b1111 !
12
